
   INFO  Server running on [http://194.110.54.178:8001].  

  Press Ctrl+C to stop the server

  2023-08-06 04:37:10 ................................................... ~ 1s
  2023-08-06 04:37:10 ................................................... ~ 1s
  2023-08-06 05:21:31 ................................................... ~ 0s
  2023-08-06 05:21:31 ................................................... ~ 1s
  2023-08-06 05:21:32 ................................................... ~ 0s
  2023-08-06 05:21:32 ................................................... ~ 0s
  2023-08-06 05:21:32 ................................................... ~ 0s
  2023-08-06 05:21:32 ................................................... ~ 1s
  2023-08-06 05:24:16 ................................................... ~ 0s
  2023-08-06 05:24:16 ................................................... ~ 0s
  2023-08-06 05:24:16 ................................................... ~ 1s
  2023-08-06 05:24:17 ................................................... ~ 1s
  2023-08-06 05:24:51 ................................................... ~ 0s
  2023-08-06 05:24:51 ................................................... ~ 0s
  2023-08-06 05:24:51 ................................................... ~ 0s
  2023-08-06 05:24:51 ................................................... ~ 2s
  2023-08-06 05:25:01 ................................................... ~ 0s
  2023-08-06 05:25:01 ................................................... ~ 0s
  2023-08-06 05:25:02 ................................................... ~ 0s
  2023-08-06 05:25:02 ................................................... ~ 1s
  2023-08-06 05:25:38 ................................................... ~ 0s
  2023-08-06 05:25:38 ................................................... ~ 1s
  2023-08-06 05:25:39 ................................................... ~ 0s
  2023-08-06 05:25:39 ................................................... ~ 1s
  2023-08-06 05:27:55 ................................................... ~ 0s
  2023-08-06 05:27:55 /favicon.ico ...................................... ~ 0s
  2023-08-06 05:30:29 ................................................... ~ 0s
  2023-08-06 05:32:51 ................................................... ~ 0s
  2023-08-06 05:32:52 ................................................... ~ 0s
  2023-08-06 05:32:53 ................................................... ~ 1s
  2023-08-06 05:33:22 ................................................... ~ 0s
  2023-08-06 05:33:24 ................................................... ~ 0s

   WARN  Failed to listen on 194.110.54.178:8001 (reason: Address already in use).  

  2023-08-06 05:34:05 ................................................... ~ 0s
  2023-08-06 05:34:06 ................................................... ~ 0s
  2023-08-06 05:34:30 ................................................... ~ 0s

   INFO  Environment modified. Restarting server...  

   INFO  Server running on [http://194.110.54.178:8001].  

  Press Ctrl+C to stop the server


   INFO  Environment modified. Restarting server...  

   INFO  Server running on [http://194.110.54.178:8001].  

  Press Ctrl+C to stop the server


   INFO  Server running on [http://194.110.54.178:8001].  

  Press Ctrl+C to stop the server


> dev
> vite --host=194.110.54.178 --port=8002

sh: vite: command not found
  2023-08-07 00:58:50 ................................................... ~ 0s
  2023-08-07 00:58:50 ................................................... ~ 0s
  2023-08-07 00:58:50 ................................................... ~ 1s
  2023-08-07 00:58:50 ................................................... ~ 1s
  2023-08-07 00:58:51 ................................................... ~ 0s
  2023-08-07 00:58:59 ................................................... ~ 0s
  2023-08-07 00:58:59 ................................................... ~ 0s
  2023-08-07 00:58:59 ................................................... ~ 0s
  2023-08-07 00:58:59 ................................................... ~ 0s
  2023-08-07 00:58:59 ................................................... ~ 0s
  2023-08-07 00:59:01 ................................................... ~ 0s
  2023-08-07 00:59:01 ................................................... ~ 0s
  2023-08-07 00:59:01 ................................................... ~ 0s
  2023-08-07 00:59:01 ................................................... ~ 1s
  2023-08-07 00:59:01 ................................................... ~ 1s
  2023-08-07 01:00:15 ................................................... ~ 0s
  2023-08-07 01:11:51 ................................................... ~ 1s
  2023-08-07 01:11:52 ................................................... ~ 0s
  2023-08-07 01:11:52 ................................................... ~ 0s
  2023-08-07 01:11:52 ................................................... ~ 0s
  2023-08-07 01:11:52 ................................................... ~ 0s
  2023-08-07 01:12:16 ................................................... ~ 1s
  2023-08-07 01:12:17 ................................................... ~ 0s
  2023-08-07 01:12:17 ................................................... ~ 0s
  2023-08-07 01:12:17 ................................................... ~ 0s
  2023-08-07 01:12:17 ................................................... ~ 0s
  2023-08-07 01:13:03 ................................................... ~ 0s
  2023-08-07 01:13:03 ................................................... ~ 1s
  2023-08-07 01:13:19 ................................................... ~ 0s
  2023-08-07 01:13:19 ................................................... ~ 1s
  2023-08-07 01:14:56 ................................................... ~ 1s
  2023-08-07 01:14:57 ................................................... ~ 0s
  2023-08-07 01:14:57 ................................................... ~ 0s
  2023-08-07 01:14:57 ................................................... ~ 0s
  2023-08-07 01:14:57 ................................................... ~ 0s
  2023-08-07 01:18:31 ................................................... ~ 0s
  2023-08-07 01:18:31 ................................................... ~ 0s
  2023-08-07 01:18:38 ................................................... ~ 0s
  2023-08-07 01:18:38 ................................................... ~ 0s
  2023-08-07 01:19:12 ................................................... ~ 1s
  2023-08-07 01:19:13 ................................................... ~ 0s
  2023-08-07 01:19:13 ................................................... ~ 0s
  2023-08-07 01:19:13 ................................................... ~ 0s
  2023-08-07 01:19:13 ................................................... ~ 0s
  2023-08-07 01:20:09 ................................................... ~ 0s
  2023-08-07 01:20:09 ................................................... ~ 0s
  2023-08-07 01:20:12 ................................................... ~ 0s
  2023-08-07 01:20:12 ................................................... ~ 0s
  2023-08-07 01:20:12 ................................................... ~ 0s
  2023-08-07 01:20:12 ................................................... ~ 0s
  2023-08-07 01:20:12 ................................................... ~ 0s
  2023-08-07 01:21:15 ................................................... ~ 0s
  2023-08-07 01:21:15 ................................................... ~ 1s
  2023-08-07 01:21:30 ................................................... ~ 0s
  2023-08-07 01:21:30 ................................................... ~ 0s
  2023-08-07 01:21:33 ................................................... ~ 0s
  2023-08-07 01:21:33 ................................................... ~ 1s
  2023-08-07 01:22:49 ................................................... ~ 0s
  2023-08-07 01:22:49 ................................................... ~ 0s
  2023-08-07 01:22:53 ................................................... ~ 0s
  2023-08-07 01:22:54 ................................................... ~ 0s
  2023-08-07 01:22:54 ................................................... ~ 0s
  2023-08-07 01:22:54 ................................................... ~ 0s
  2023-08-07 01:22:54 ................................................... ~ 0s
  2023-08-07 01:24:01 ................................................... ~ 0s
  2023-08-07 01:24:01 ................................................... ~ 0s
  2023-08-07 01:24:12 ................................................... ~ 0s
  2023-08-07 01:24:12 ................................................... ~ 0s
  2023-08-07 01:24:12 ................................................... ~ 0s
  2023-08-07 01:24:12 ................................................... ~ 1s
  2023-08-07 01:24:12 ................................................... ~ 1s
  2023-08-07 01:24:15 ................................................... ~ 0s
  2023-08-07 01:28:36 ................................................... ~ 1s
  2023-08-07 01:28:37 /favicon.ico ...................................... ~ 0s
  2023-08-07 01:28:48 ................................................... ~ 1s
  2023-08-07 01:28:49 ................................................... ~ 0s
  2023-08-07 01:32:41 ................................................... ~ 0s
  2023-08-07 01:37:39 ................................................... ~ 0s
  2023-08-07 01:37:44 ................................................... ~ 0s
  2023-08-07 01:37:46 ................................................... ~ 0s
  2023-08-07 01:37:51 ................................................... ~ 0s
  2023-08-07 01:38:05 ................................................... ~ 0s
  2023-08-07 01:41:25 ................................................... ~ 0s
  2023-08-07 01:41:25 ................................................... ~ 0s
  2023-08-07 01:41:25 ................................................... ~ 1s
  2023-08-07 01:41:25 ................................................... ~ 1s
  2023-08-07 01:41:25 ................................................... ~ 1s
  2023-08-07 01:42:30 ................................................... ~ 0s
  2023-08-07 01:42:31 ................................................... ~ 0s
  2023-08-07 01:42:31 ................................................... ~ 0s
  2023-08-07 01:42:31 ................................................... ~ 0s
  2023-08-07 01:42:31 ................................................... ~ 0s
  2023-08-07 01:43:46 ................................................... ~ 0s
  2023-08-07 01:43:46 ................................................... ~ 0s
  2023-08-07 01:43:46 ................................................... ~ 0s
  2023-08-07 01:43:46 ................................................... ~ 0s
  2023-08-07 01:43:46 ................................................... ~ 1s
  2023-08-07 01:43:46 ................................................... ~ 1s
  2023-08-07 01:43:47 ................................................... ~ 0s
  2023-08-07 01:43:50 ................................................... ~ 1s
  2023-08-07 01:43:53 ................................................... ~ 0s

   WARN  65.49.1.52:6173 Invalid request (Unsupported SSL request).  

  2023-08-07 02:01:45 ................................................... ~ 0s

   WARN  65.49.1.53:53783 Invalid request (Unsupported SSL request).  

  2023-08-07 02:01:48 ................................................... ~ 0s
  2023-08-07 03:48:36 ................................................... ~ 0s
  2023-08-07 03:49:05 ................................................... ~ 0s
  2023-08-07 03:59:52 ................................................... ~ 0s
  2023-08-07 04:00:36 ................................................... ~ 0s
  2023-08-07 04:04:39 ................................................... ~ 0s
  2023-08-07 04:05:35 ................................................... ~ 0s
  2023-08-07 04:05:35 ................................................... ~ 0s
  2023-08-07 04:05:45 ................................................... ~ 0s
  2023-08-07 04:05:45 ................................................... ~ 0s
  2023-08-07 04:05:52 ................................................... ~ 1s
  2023-08-07 04:08:01 ................................................... ~ 0s
  2023-08-07 04:09:59 ................................................... ~ 0s
  2023-08-07 04:09:59 ................................................... ~ 1s
  2023-08-07 04:10:29 ................................................... ~ 1s
  2023-08-07 04:10:40 ................................................... ~ 1s
  2023-08-07 04:10:41 ................................................... ~ 0s
  2023-08-07 04:10:43 ................................................... ~ 0s
  2023-08-07 04:10:45 ................................................... ~ 0s
  2023-08-07 04:11:45 ................................................... ~ 1s
  2023-08-07 04:11:46 ................................................... ~ 0s
  2023-08-07 04:11:46 ................................................... ~ 0s
  2023-08-07 04:11:46 ................................................... ~ 0s
  2023-08-07 04:11:46 ................................................... ~ 0s
  2023-08-07 04:12:32 ................................................... ~ 0s
  2023-08-07 04:12:32 ................................................... ~ 0s
  2023-08-07 04:12:34 ................................................... ~ 1s
  2023-08-07 04:12:35 ................................................... ~ 0s
  2023-08-07 04:16:15 ................................................... ~ 0s
  2023-08-07 04:16:15 ................................................... ~ 0s
  2023-08-07 04:16:30 ................................................... ~ 0s
  2023-08-07 04:16:30 ................................................... ~ 1s
  2023-08-07 04:16:35 ................................................... ~ 1s
  2023-08-07 04:16:37 ................................................... ~ 0s
  2023-08-07 04:16:57 ................................................... ~ 0s
  2023-08-07 04:16:57 ................................................... ~ 0s
  2023-08-07 04:17:09 ................................................... ~ 1s
  2023-08-07 04:17:10 ................................................... ~ 0s
  2023-08-07 04:17:51 ................................................... ~ 0s
  2023-08-07 04:17:51 ................................................... ~ 0s
  2023-08-07 04:18:17 ................................................... ~ 0s
  2023-08-07 04:18:18 ................................................... ~ 0s
  2023-08-07 04:18:43 ................................................... ~ 0s
  2023-08-07 04:18:44 ................................................... ~ 0s
  2023-08-07 04:18:49 ................................................... ~ 0s
  2023-08-07 04:19:15 ................................................... ~ 0s
  2023-08-07 04:19:15 ................................................... ~ 1s
  2023-08-07 04:19:28 ................................................... ~ 1s
  2023-08-07 04:19:29 ................................................... ~ 0s
  2023-08-07 04:19:41 ................................................... ~ 0s
  2023-08-07 04:19:41 ................................................... ~ 0s
  2023-08-07 04:19:44 ................................................... ~ 0s
  2023-08-07 04:19:47 ................................................... ~ 1s
  2023-08-07 04:19:48 ................................................... ~ 1s
  2023-08-07 04:19:50 ................................................... ~ 0s
  2023-08-07 04:20:17 ................................................... ~ 1s
  2023-08-07 04:20:52 ................................................... ~ 0s
  2023-08-07 04:21:25 ................................................... ~ 1s
  2023-08-07 04:21:26 ................................................... ~ 0s
  2023-08-07 04:21:28 ................................................... ~ 0s
  2023-08-07 04:21:44 ................................................... ~ 0s
  2023-08-07 04:21:44 ................................................... ~ 1s
  2023-08-07 04:21:46 ................................................... ~ 0s
  2023-08-07 04:23:57 ................................................... ~ 0s
  2023-08-07 04:23:57 ................................................... ~ 1s
  2023-08-07 04:24:17 ................................................... ~ 1s
  2023-08-07 04:24:18 ................................................... ~ 0s
  2023-08-07 04:24:30 ................................................... ~ 1s
  2023-08-07 04:24:31 ................................................... ~ 0s
  2023-08-07 04:24:32 ................................................... ~ 1s
  2023-08-07 04:24:33 ................................................... ~ 0s
  2023-08-07 04:25:11 ................................................... ~ 0s
  2023-08-07 04:25:11 ................................................... ~ 1s
  2023-08-07 04:25:14 ................................................... ~ 0s
  2023-08-07 04:25:14 ................................................... ~ 1s
  2023-08-07 04:25:26 ................................................... ~ 0s
  2023-08-07 04:25:26 ................................................... ~ 1s
  2023-08-07 04:26:23 ................................................... ~ 0s
  2023-08-07 04:26:23 ................................................... ~ 0s
  2023-08-07 04:26:30 ................................................... ~ 0s
  2023-08-07 04:26:30 ................................................... ~ 0s
  2023-08-07 04:26:32 ................................................... ~ 0s
  2023-08-07 04:26:34 ................................................... ~ 0s
  2023-08-07 04:26:35 ................................................... ~ 0s
  2023-08-07 04:26:38 ................................................... ~ 0s
  2023-08-07 04:26:41 ................................................... ~ 1s
  2023-08-07 04:26:43 ................................................... ~ 0s
  2023-08-07 04:27:11 ................................................... ~ 1s
  2023-08-07 04:27:12 ................................................... ~ 0s
  2023-08-07 04:27:12 ................................................... ~ 0s
  2023-08-07 04:27:12 ................................................... ~ 0s
  2023-08-07 04:27:14 ................................................... ~ 0s
  2023-08-07 04:27:16 ................................................... ~ 0s
  2023-08-07 04:27:18 ................................................... ~ 0s
  2023-08-07 04:27:21 ................................................... ~ 1s
  2023-08-07 04:27:23 ................................................... ~ 0s
  2023-08-07 04:27:26 ................................................... ~ 0s
  2023-08-07 04:27:29 ................................................... ~ 0s
  2023-08-07 04:27:30 ................................................... ~ 0s
  2023-08-07 04:27:31 ................................................... ~ 1s
  2023-08-07 04:28:03 ................................................... ~ 0s
  2023-08-07 04:28:06 ................................................... ~ 0s
  2023-08-07 04:28:08 ................................................... ~ 0s
  2023-08-07 04:28:09 ................................................... ~ 0s
  2023-08-07 04:28:10 ................................................... ~ 0s
  2023-08-07 04:28:22 ................................................... ~ 0s
  2023-08-07 04:28:22 ................................................... ~ 1s
  2023-08-07 04:29:09 ................................................... ~ 0s
  2023-08-07 04:29:09 ................................................... ~ 0s
  2023-08-07 04:29:16 ................................................... ~ 0s
  2023-08-07 04:29:16 ................................................... ~ 0s
  2023-08-07 04:29:21 ................................................... ~ 0s
  2023-08-07 04:29:21 ................................................... ~ 1s
  2023-08-07 04:29:21 ................................................... ~ 1s
  2023-08-07 04:29:22 ................................................... ~ 0s
  2023-08-07 04:29:22 ................................................... ~ 0s
  2023-08-07 04:29:29 ................................................... ~ 0s
  2023-08-07 04:29:31 ................................................... ~ 0s
  2023-08-07 04:29:32 ................................................... ~ 0s
  2023-08-07 04:29:35 ................................................... ~ 1s
  2023-08-07 04:30:09 ................................................... ~ 0s
  2023-08-07 04:30:13 ................................................... ~ 0s
  2023-08-07 04:30:13 ................................................... ~ 0s
  2023-08-07 04:30:13 ................................................... ~ 1s
  2023-08-07 04:30:13 ................................................... ~ 1s
  2023-08-07 04:31:08 ................................................... ~ 1s
  2023-08-07 04:31:09 ................................................... ~ 0s
  2023-08-07 04:32:09 ................................................... ~ 0s
  2023-08-07 04:32:09 ................................................... ~ 0s
  2023-08-07 04:32:09 ................................................... ~ 1s
  2023-08-07 04:32:09 ................................................... ~ 1s
  2023-08-07 04:32:10 ................................................... ~ 0s
  2023-08-07 04:32:14 ................................................... ~ 0s
  2023-08-07 04:32:14 ................................................... ~ 0s
  2023-08-07 04:32:14 ................................................... ~ 0s
  2023-08-07 04:32:14 ................................................... ~ 1s
  2023-08-07 04:32:14 ................................................... ~ 1s
  2023-08-07 04:32:17 ................................................... ~ 0s
  2023-08-07 04:32:19 ................................................... ~ 1s
  2023-08-07 04:32:21 ................................................... ~ 0s
  2023-08-07 04:32:23 ................................................... ~ 0s
  2023-08-07 04:32:24 ................................................... ~ 0s
  2023-08-07 04:32:25 ................................................... ~ 0s
  2023-08-07 04:32:26 ................................................... ~ 0s
  2023-08-07 04:33:38 ................................................... ~ 0s
  2023-08-07 04:33:38 ................................................... ~ 0s
  2023-08-07 04:33:54 ................................................... ~ 0s
  2023-08-07 04:33:54 ................................................... ~ 0s
  2023-08-07 04:34:00 ................................................... ~ 0s
  2023-08-07 04:34:00 ................................................... ~ 0s
  2023-08-07 04:34:03 ................................................... ~ 0s
  2023-08-07 04:34:03 ................................................... ~ 1s
  2023-08-07 04:34:03 ................................................... ~ 1s
  2023-08-07 04:34:04 ................................................... ~ 0s
  2023-08-07 04:34:04 ................................................... ~ 0s
  2023-08-07 04:34:08 ................................................... ~ 0s
  2023-08-07 04:34:11 ................................................... ~ 0s
  2023-08-07 04:34:14 ................................................... ~ 0s
  2023-08-07 04:34:15 ................................................... ~ 0s
  2023-08-07 04:34:18 ................................................... ~ 0s
  2023-08-07 04:34:19 ................................................... ~ 0s
  2023-08-07 04:34:41 ................................................... ~ 0s
  2023-08-07 04:34:42 ................................................... ~ 0s
  2023-08-07 04:35:07 ................................................... ~ 0s
  2023-08-07 04:35:09 ................................................... ~ 0s
  2023-08-07 04:35:14 ................................................... ~ 0s
  2023-08-07 04:35:15 ................................................... ~ 0s
  2023-08-07 04:35:15 ................................................... ~ 0s
  2023-08-07 04:35:16 ................................................... ~ 0s
  2023-08-07 04:36:46 ................................................... ~ 0s
  2023-08-07 04:36:47 ................................................... ~ 0s
  2023-08-07 04:36:47 ................................................... ~ 0s
  2023-08-07 04:36:47 ................................................... ~ 0s
  2023-08-07 04:36:47 ................................................... ~ 0s
  2023-08-07 04:40:13 ................................................... ~ 1s
  2023-08-07 04:40:14 ................................................... ~ 0s
  2023-08-07 04:40:14 ................................................... ~ 0s
  2023-08-07 04:40:14 ................................................... ~ 0s
  2023-08-07 04:40:14 ................................................... ~ 0s
  2023-08-07 04:40:43 ................................................... ~ 1s
  2023-08-07 04:40:44 ................................................... ~ 0s
  2023-08-07 04:40:44 ................................................... ~ 0s
  2023-08-07 04:40:44 ................................................... ~ 0s
  2023-08-07 04:40:44 ................................................... ~ 0s
  2023-08-07 04:41:34 ................................................... ~ 0s
  2023-08-07 04:41:34 ................................................... ~ 0s
  2023-08-07 04:41:34 ................................................... ~ 1s
  2023-08-07 04:41:34 ................................................... ~ 1s
  2023-08-07 04:41:35 ................................................... ~ 0s
  2023-08-07 04:41:38 ................................................... ~ 1s
  2023-08-07 04:41:39 ................................................... ~ 0s
  2023-08-07 04:41:39 ................................................... ~ 0s
  2023-08-07 04:41:39 ................................................... ~ 0s
  2023-08-07 04:41:39 ................................................... ~ 0s
  2023-08-07 04:42:06 ................................................... ~ 0s
  2023-08-07 04:42:06 ................................................... ~ 0s
  2023-08-07 04:42:06 ................................................... ~ 0s
  2023-08-07 04:42:06 ................................................... ~ 0s
  2023-08-07 04:42:06 ................................................... ~ 1s
  2023-08-07 04:42:19 ................................................... ~ 0s
  2023-08-07 04:42:19 ................................................... ~ 1s
  2023-08-07 04:42:20 ................................................... ~ 0s
  2023-08-07 04:42:20 ................................................... ~ 0s
  2023-08-07 04:42:20 ................................................... ~ 0s
  2023-08-07 04:42:22 ................................................... ~ 1s
  2023-08-07 04:42:23 ................................................... ~ 0s
  2023-08-07 04:42:23 ................................................... ~ 0s
  2023-08-07 04:42:23 ................................................... ~ 0s
  2023-08-07 04:42:23 ................................................... ~ 0s
